…
Importar datos de excel a R: readxl

```r
library(readxl)

# Aca usamos una funcion ejemplo para cargar datos
xls_ejemplo <- readxl_example("datasets.xls")

#Usamos la funcion read_excel
read_excel(xls_ejemplo)
```

```
## # A tibble: 150 × 5
##    Sepal.Length Sepal.Width Petal.Length Petal.Width Species
##           <dbl>      <dbl>       <dbl>      <dbl><chr> 
##  1          5.1         3.5          1.4         0.2 setosa 
##  2          4.9         3            1.4         0.2 setosa 
##  3          4.7         3.2          1.3         0.2 setosa 
##  4          4.6         3.1          1.5         0.2 setosa 
##  5          5           3.6          1.4         0.2 setosa 
##  6          5.4         3.9          1.7         0.4 setosa 
##  7          4.6         3.4          1.4         0.3 setosa 
##  8          5           3.4          1.5         0.2 setosa 
##  9          4.4         2.9          1.4         0.2 setosa 
## 10          4.9         3.1          1.5         0.1 setosa 
## # … with 140 more rows
```
…
```
## [1] "iris"     "mtcars"   "chickwts" "quakes"
```

```r
#leo la hoja que quiero
read_excel(xls_ejemplo, sheet = "iris") 
```

```
## # A tibble: 150 × 5
##    Sepal.Length Sepal.Width Petal.Length Petal.Width Species
##           <dbl>      <dbl>       <dbl>      <dbl><chr> 
##  1          5.1         3.5          1.4         0.2 setosa 
##  2          4.9         3            1.4         0.2 setosa 
##  3          4.7         3.2          1.3         0.2 setosa 
##  4          4.6         3.1          1.5         0.2 setosa 
##  5          5           3.6          1.4         0.2 setosa 
##  6          5.4         3.9          1.7         0.4 setosa 
##  7          4.6         3.4          1.4         0.3 setosa 
##  8          5           3.4          1.5         0.2 setosa 
##  9          4.4         2.9          1.4         0.2 setosa 
## 10          4.9         3.1          1.5         0.1 setosa 
## # … with 140 more rows
```
…
#google sheet publica 
read_sheet("https://docs.google.com/spreadsheets/d/1U6Cf_qEOhiR9AZqTqS3mbMF3zt2db48ZP5v3rkrAEJY/edit#gid=780868077")
```

```
## ✔ Reading from "gapminder".
```

```
## ✔ Range 'Africa'.
```

```
## # A tibble: 624 × 6
##    country continent  year lifeExp      pop gdpPercap
##    <chr>  <chr>    <dbl>  <dbl>   <dbl>    <dbl&gt;
##  1 Algeria Africa     1952    43.1  9279525     2449.
##  2 Algeria Africa     1957    45.7 10270856     3014.
##  3 Algeria Africa     1962    48.3 11000948     2551.
##  4 Algeria Africa     1967    51.4 12760499     3247.
##  5 Algeria Africa     1972    54.5 14760787     4183.
##  6 Algeria Africa     1977    58.0 17152804     4910.
##  7 Algeria Africa     1982    61.4 20033753     5745.
##  8 Algeria Africa     1987    65.8 23254956     5681.
##  9 Algeria Africa     1992    67.7 26298373     5023.
## 10 Algeria Africa     1997    69.2 29072015     4797.
## # … with 614 more rows
```
…
